RTrack Analysis
…
I created a variable that shows a summary of mean path length from all three trials conducted on a particular day for each mouse. Its standard deviation (sd) and standard error of mean (sem) are also added. Based on this variable, I created another one that summarizes a mean of means from all mice within a particular mice group for each day. Its standard deviation (sd) and standard error of mean (sem) are also included.

# Creates mean of all trials for each mouse grouped by day
total_avg_per_day <- total_united %>% filter(Trial != 22) %>% 
group_by(Mice_group, TargetID, Day) %>% summarise(mean_length = mean(path.length), 
n=n(), sd=sd(path.length), sem=sd/sqrt(n)) %>% arrange(Day) %>% 
select(Day, Mice_group, TargetID, mean_length, n, sd, sem)

total_avg_per_day 

## # A tibble: 448 x 7
## # Groups:   Mice_group, TargetID [64]
##    Day   Mice_group    TargetID mean_length     n     sd    sem
##    <chr> <chr>            <dbl>       <dbl> <int>  <dbl>  <dbl>
##  1 1     Enriched Sham        9       1857.     3  599.   346. 
##  2 1     Enriched Sham       11       1416.     3  490.   283. 
##  3 1     Enriched Sham       13       1790.     3 1370.   791. 
##  4 1     Enriched Sham       15       2425.     3 2268.  1309. 
##  5 1     Enriched Sham       25       1253.     3  804.   464. 
##  6 1     Enriched Sham       27       3184.     3 2322.  1341. 
##  7 1     Enriched Sham       29        876.     3  581.   336. 
##  8 1     Enriched Sham       31       1637.     3 1267.   732. 
##  9 1     Enriched Sham       41       2376.     3 1778.  1026. 
## 10 1     Enriched Sham       43        409.     3   83.3   48.1
## # … with 438 more rows

# Creates daily mean from the means of each mouse grouped by Mice_group
total_day_avg <- total_avg_per_day %>% group_by(Mice_group, Day) %>%
summarise(day_mean_length_for_all = mean(mean_length), n = n(), 
sd = sd(mean_length),sem=sd/sqrt(n)) %>% select(Day, Mice_group, 
day_mean_length_for_all, n, sd, sem) %>% arrange(Day)

total_day_avg

## # A tibble: 28 x 6
## # Groups:   Mice_group [4]
##    Day   Mice_group     day_mean_length_for_all     n    sd   sem
##    <chr> <chr>                            <dbl> <int> <dbl> <dbl>
##  1 1     Enriched Sham                    1773.    16  700. 175. 
##  2 1     Enriched X-ray                   2089.    16  942. 235. 
##  3 1     Normal Sham                      1967.    16  542. 136. 
##  4 1     Normal X-ray                     1968.    16  756. 189. 
##  5 2     Enriched Sham                     766.    16  350.  87.5
##  6 2     Enriched X-ray                    623.    16  255.  63.7
##  7 2     Normal Sham                       879.    16  484. 121. 
##  8 2     Normal X-ray                      722.    16  246.  61.4
##  9 3     Enriched Sham                    1997.    16 1020. 255. 
## 10 3     Enriched X-ray                   1954.    16  889. 222. 
## # … with 18 more rows
…
